{
    "description": "Do you know the feeling when you repeat some word many times and it starts to sound weird? Below is the list of some of the strangest sounding words that people submitted during my Intro to Computational Media Class at ITP, NYU.",  
    "words":
        [ "rural",
        "frugal",
        "twin",
        "santorum",
        "detritus",
        "entrepreneurial",
        "pronounciation",
        "moisture",
        "peculiarly",
        "crepuscular",
        "ubiquitous",
        "malarkey",
        "bubbles",
        "dude",
        "torque",
        "google",
        "visualization",
        "cliche",
        "floccinaucinihilipilification",
        "conundrums",
        "doodlesack",
        "volunteer",
        "mississippilessly",
        "calisthenics",
        "serendipity",
        "grommets",
        "dilettante",
        "macrosmatic",
        "supercalifragilisticexpialidocious",
        "flabergasted",
        "sphygmomanometer",
        "Kardashian",
        "hubbub",
        "prescription",
        "caulking",
        "wreath",
        "expat",
        "jentacular",
        "schnapps",
        "phlegm",
        "specific",
        "quproch",
        "riboflavin",
        "cubersome",
        "garage",
        "flummoxed",
        "profiterole",
        "ruler",
        "dingleberry",
        "egg",
        "ombudsman",
        "perpendicular",
        "collate",
        "abruptly",
        "word",
        "bitter",
        "cellar",
        "airworthy",
        "stupendous",
        "swathe" ]
}